Player,Year,PTS,TRB,AST,MP,Age
Nikola Jokic,2024,26.4,12.4,9.0,35.0,29
Joel Embiid,2024,30.0,11.7,4.2,34.5,30
Giannis Antetokounmpo,2024,29.5,12.0,5.5,33.0,29
Luka Doncic,2024,28.0,9.0,8.5,36.0,25
Jayson Tatum,2024,26.5,8.2,4.1,34.0,26
Stephen Curry,2024,27.8,5.5,6.3,34.8,36
Kevin Durant,2024,26.0,7.1,5.0,33.5,34
LeBron James,2024,25.5,8.0,7.5,34.0,39
Anthony Davis,2024,24.5,11.0,3.5,32.5,31
Ja Morant,2024,26.0,6.5,7.8,34.0,24
